{
    "Notes": "Template",
    "Patient": {
        "ActivationCode": "5317 - 5059 ",
        "PatientUserID": "003892-999601",
        "Password": "Test1234!",
        "FirstAppointmentDate": "2022-04-11",
        "SecondAppointmentDate": "09/May/2022 7:05 AM"
    },
    "investigatorData": {
        "username": "jk_si_el",
        "password": "Test1234@",
        "Study": "Jon Study",
        "Site": "Demo Site 2"
    },
    "adminData": {
        "username": "JK_SA_EL",
        "password": "Test1234@",
        "Study": "Jon Study",
        "Site": "Demo Site 2"
    },
    "newPatientParameters": {
        "schedule": "Main",
        "language": "English (United States)",
        "deviceType": "BYOD",
        "password": "Test1234!",
        "screeningID": "123456",
        "firstAppointmentOffset": "0",
        "secondAppointmentOffset": "6"
    },
    "activity1Data": {
        "ActivityScript": "OneTextBoxDataFile",
        "ActivityText": "Visit 1 - Day 1",
        "ActivityDataFile": "OneTextBox.xlsx",
        "ActivitySheet": "Day1"
    },
    "activity2Data ": {
        "ActivityScript": "OneTextBoxDataFile",
        "ActivityText": "Visit 1 - 5 Days",
        "ActivityDataFile": "ActivityDataFiles/OneTextBox.xlsx",
        "ActivitySheet": "Day1"
    }
}